<?xml version="1.0" standalone="no"?>
<!DOCTYPE svg PUBLIC "-//W3C//DTD SVG 1.1//EN" "http://www.w3.org/Graphics/SVG/1.1/DTD/svg11.dtd" >
<svg xmlns="http://www.w3.org/2000/svg">
<metadata>Generated by IcoMoon</metadata>
<defs>
<font id="icomoon" horiz-adv-x="1024">
<font-face units-per-em="1024" ascent="960" descent="-64" />
<missing-glyph horiz-adv-x="1024" />
<glyph unicode="&#x20;" horiz-adv-x="512" d="" />
<glyph unicode="&#xe600;" glyph-name="ambulance" d="M46 926c-14-6-26-14-36-28-10-16-10 2-10-286v-260l64-64h40c20 0 40 0 40 0s-2-4-4-10c-18-38-14-88 10-124 26-38 66-58 110-56 20 0 22 0 36 6 34 10 60 34 76 66 8 16 10 30 12 50 0 22-4 40-12 58-2 4-4 8-4 8 0 2 54 2 176 2 112 0 176 0 176-2 0 0-2-4-4-10-16-34-16-78 4-112 8-14 8-16 24-30 26-26 56-38 94-36 20 0 36 4 54 14 14 8 18 10 32 24 36 36 46 96 24 142-2 4-4 10-4 10s18 0 40 0h40v192l-128 256h-94c-62 0-96 0-96 2-2 0-2 32-2 70 0 58 0 68-4 76-6 18-16 30-34 38l-10 4-302 2c-240 0-302 0-308-2zM390 782l2-78h82c70 0 80-2 82-4 0 0 0-20 0-42v-40h-14c-6-2-44-2-82-2h-70v-162h-82v162h-162v42c0 24 0 44 0 44 2 0 38 2 82 2h80v78c0 42 0 78 0 78s20 0 42 0h40zM838 672c2-4 94-190 94-190-2-2-194-2-222-2h-6v190l18 2c18 0 114 0 116 0z" />
<glyph unicode="&#xe601;" glyph-name="skull" d="M256 21.334c0-47.146 38.186-85.334 85.334-85.334h320c47.146 0 85.334 38.186 85.334 85.334v24.96c0 20.032 13.866 36.906 32.618 41.366 102.42 15.806 180.714 104.34 180.714 211.006 0 48-15.786 92.374-42.666 128v145.92c0 213.974-186.24 387.414-416 387.414s-416-173.44-416-387.414v-145.92c-26.88-35.626-42.666-80-42.666-128 0-106.666 78.294-195.2 180.694-211.008 18.774-4.458 32.64-21.334 32.64-41.366l-0.002-24.958zM213.334 448c0 58.88 47.786 106.666 106.666 106.666s106.666-47.786 106.666-106.666-47.786-106.666-106.666-106.666-106.666 47.786-106.666 106.666zM576 448c0 58.88 47.786 106.666 106.666 106.666s106.666-47.786 106.666-106.666-47.786-106.666-106.666-106.666-106.666 47.786-106.666 106.666zM396.138 220.16l75.114 75.094c16.64 16.64 43.52 16.64 60.16 0l75.094-75.094c16.214-16.214 16.214-42.454 0-58.666s-42.454-16.214-58.666 0l-46.506 46.506-46.528-46.506c-16.192-16.214-42.432-16.214-58.666 0-16.172 16.212-16.172 42.474-0.002 58.666z" />
<glyph unicode="&#xe602;" glyph-name="medicine" d="M0 21.334c0-47.146 38.186-85.334 85.334-85.334h853.334c47.146 0 85.334 38.186 85.334 85.334l-0.002 640c0 47.146-38.186 85.334-85.334 85.334h-170.666v127.998c0 47.146-38.186 85.334-85.334 85.334h-341.332c-47.146 0-85.334-38.186-85.334-85.334v-128h-170.666c-47.146 0-85.334-38.186-85.334-85.334v-639.998zM661.334 746.666h-298.668v59.734c0 26.026 20.908 46.934 46.934 46.934h204.8c26.026 0 46.934-20.908 46.934-46.934v-59.734zM302.934 448h102.4v102.4c0 26.026 20.906 46.934 46.934 46.934h119.466c26.026 0 46.934-20.906 46.934-46.934l-0.002-102.4h102.4c26.026 0 46.934-20.906 46.934-46.934v-119.466c0-26.026-20.906-46.934-46.934-46.934h-102.4v-102.4c0-26.026-20.906-46.934-46.934-46.934h-119.466c-26.026 0-46.934 20.906-46.934 46.934l0.002 102.4h-102.4c-26.026 0-46.934 20.906-46.934 46.934v119.466c0 26.028 20.906 46.934 46.934 46.934z" />
<glyph unicode="&#xe603;" glyph-name="lightning" d="M573.654 576l85.76 328.96c1.28 4.032 1.92 8.342 1.92 12.8 0 23.232-18.774 42.24-42.048 42.24-13.206 0-24.96-5.974-32.618-15.574l-428.162-555.306c-5.76-7.254-9.172-16.426-9.172-26.454 0-23.466 19.2-42.666 42.666-42.666h258.326l-85.76-328.96c-1.302-4.054-1.92-8.342-1.92-12.8 0.020-23.254 18.794-42.24 42.048-42.24 13.226 0 24.96 5.952 32.64 15.574l428.138 555.306c5.782 7.254 9.194 16.406 9.194 26.454 0 23.466-19.2 42.666-42.666 42.666h-258.346z" />
<glyph unicode="&#xe604;" glyph-name="droplet2" d="M170.666 260.694c0-179.392 148.054-324.694 330.668-324.694 182.634 0 330.666 145.302 330.666 324.694 0 229.972-256.618 379.306-277.334 635.306v10.666c0 29.44-23.892 53.334-53.332 53.334s-53.334-23.894-53.334-53.334v-10.666c-21.334-256-277.334-405.334-277.334-635.306zM547.2 128c46.080 10.666 82.752 49.92 93.418 92.8 3.648 20.054 21.142 35.2 42.048 35.2 23.466 0 42.666-19.2 42.666-42.666 0-30.698-25.814-77.44-60.992-112.426-34.58-34.134-75.754-58.242-109.674-58.242-23.466 0-42.666 19.84-42.666 43.286 0 20.928 15.146 38.422 35.2 42.048z" />
<glyph unicode="&#xe605;" glyph-name="chat" horiz-adv-x="1344" d="M1140.864 511.264c-8.448 2.624-17.408-1.984-20.096-10.4-2.656-8.416 1.984-17.408 10.4-20.096 125.056-39.84 180.832-99.264 180.832-192.768 0-83.168-75.872-147.712-121.056-178.816-4.352-3.008-6.944-7.904-6.944-13.184v-122.336c-23.36 8.704-64.096 28.48-100.032 68.96-3.744 4.192-9.44 6.112-14.976 5.088-9.12-1.76-18.432-4.256-27.872-6.784-16.32-4.384-33.152-8.928-49.12-8.928-82.176 0-139.712 17.664-198.528 60.896-7.168 5.248-17.12 3.68-22.368-3.424-5.248-7.136-3.712-17.12 3.392-22.368 64.864-47.68 127.872-67.104 217.504-67.104 20.192 0 39.136 5.088 57.44 10.016 5.696 1.568 11.36 3.104 16.96 4.416 59.808-63.168 127.456-77.536 130.4-78.112 1.056-0.224 2.112-0.32 3.2-0.32 3.648 0 7.264 1.248 10.112 3.616 3.744 3.040 5.888 7.584 5.888 12.384v135.648c82.624 58.912 128 129.824 128 200.352 0 108.192-64.544 179.136-203.136 223.264zM1056 528c0 246.272-224.576 432-522.336 432-299.264 0-533.664-189.792-533.664-432.064 0-145.248 102.752-249.312 192-312.288v-212.352c0-5.44 2.752-10.464 7.296-13.44 2.656-1.696 5.664-2.56 8.704-2.56 2.208 0 4.448 0.48 6.56 1.408 4.672 2.080 113.888 51.712 207.328 153.888 40.48-7.52 86.272-14.752 127.808-14.752 302.816 0 506.304 160.832 506.304 400.16zM549.664 159.84c-41.92 0-89.568 8.032-130.656 15.872-5.536 0.992-11.232-0.896-14.976-5.088-65.6-73.984-142.688-120.992-180.032-141.248v194.624c0 5.28-2.592 10.176-6.944 13.184-84.416 58.080-185.056 155.616-185.056 290.752 0 224.352 220.352 400.064 501.664 400.064 279.552 0 490.336-171.968 490.336-400 0-220.224-190.624-368.16-474.336-368.16zM528 592c-35.296 0-64-28.704-64-64s28.704-64 64-64 64 28.704 64 64-28.704 64-64 64zM528 496c-17.632 0-32 14.336-32 32s14.368 32 32 32 32-14.336 32-32-14.368-32-32-32zM752 592c-35.296 0-64-28.704-64-64s28.704-64 64-64 64 28.704 64 64-28.704 64-64 64zM752 496c-17.632 0-32 14.336-32 32s14.368 32 32 32 32-14.336 32-32-14.368-32-32-32zM304 588.96c-35.296 0-64-28.704-64-64s28.704-64 64-64 64 28.704 64 64-28.704 64-64 64zM304 492.96c-17.632 0-32 14.336-32 32s14.368 32 32 32 32-14.336 32-32-14.368-32-32-32z" />
<glyph unicode="&#xe606;" glyph-name="warning" d="M977.76 152.992l-400.608 685.952c-33.408 33.408-87.616 33.408-121.024 0l-400.64-685.952c-33.408-33.376-33.408-87.552 0-120.992h922.24c33.472 33.44 33.472 87.616 0.032 120.992zM479.744 592.704c0 26.528 21.504 48 48 48s48-21.472 48-48v-224c0-26.496-21.504-48-48-48s-48 21.504-48 48v224zM528.032 160.448c-26.496 0-48 21.44-48 48 0 26.496 21.504 48 48 48s48-21.504 48-48c0-26.56-21.504-48-48-48z" />
<glyph unicode="&#xe607;" glyph-name="bomb" horiz-adv-x="1168" d="M1063.296 706.304l105.088-14.848-93.44-49.472 67.744-61.888-98.080 12.384 60.704-126.24-121.44 91.584-100.448-121.28 46.72 150.944-147.168-79.2 102.752 111.36-7.040 27.392c-27.744-13.824-67.040-27.936-108.128-26.304-54.496 0-122.176 38.016-203.040 105.984 0 0-91.552 96.832-168.512 96.832-79.168 0-71.424-119.104-71.328-120.288h89.664v-81.024c113.984-43.904 191.008-154.176 191.008-283.68 0-168-136.192-304.192-304.192-304.192s-304.16 136.256-304.16 304.256c0 129.472 79.008 239.776 192.992 283.68v81.024h80.128c-0.096 0.608-9.216 87.808 36.8 136.192 24.544 25.792 54.528 38.688 90.016 38.688 106.784 0 202.624-112.384 202.624-112.384 70.24-60.288 127.52-90.4 171.84-90.4 17.984 0 54.592 11.328 73.408 17.568l-57.824 45.504 100.448-7.392-77.056 118.784 126.112-89.088 14.016 84.16 23.328-76.736 93.44 111.36-21.024-123.744 107.424 24.736-93.376-74.272z" />
<glyph unicode="&#xe608;" glyph-name="injection" d="M773.12 665.376c12.096-12.064 12.096-31.648 0-43.744-12.096-12.064-21.92-21.888-21.92-21.888l21.92-21.888c24.16-24.16 24.16-63.328 0-87.52l-328.16-328.096c-24.192-24.192-63.36-24.192-87.52 0l-21.888 21.888-87.488-87.552 43.744-43.744c12.096-12.064 12.096-31.616 0-43.744-12.096-12.064-31.68-12.064-43.744 0l-175.040 175.072c-12.064 12.064-12.064 31.616 0 43.744 12.096 12.064 31.68 12.064 43.744 0l43.744-43.744 87.52 87.488-21.888 21.888c-24.192 24.128-24.192 63.328 0 87.488l328.192 328.128c24.192 24.192 63.328 24.192 87.488 0l21.888-21.888c0 0 9.824 9.824 21.888 21.888 12.096 12.096 31.68 12.096 43.744 0l10.944-10.944 175.040 175.040v-43.744l-153.152-153.152 10.944-10.976zM619.968 687.264c-12.064 12.096-31.648 12.096-43.744 0l-65.632-65.632 43.744-43.744-21.888-21.888-43.744 43.744-65.632-65.632 43.744-43.776-21.888-21.888-43.776 43.776-21.888-21.888 87.52-87.488-21.888-21.888-87.52 87.488-65.568-65.568 87.488-87.488-21.888-21.888-87.488 87.488-21.888-21.888c-12.096-12.064-12.096-31.68 0-43.744l131.264-131.264c12.096-12.128 31.68-12.128 43.776 0l328.128 328.128c12.128 12.064 12.128 31.648 0 43.744l-131.232 131.296zM532.48 643.52l21.888 21.888 87.488-87.488-21.888-21.888-87.488 87.488zM532.48 468.512l-87.488 87.52 21.888 21.888 87.488-87.52-21.888-21.888zM313.696 424.736l21.888 21.888 43.744-43.744-21.888-21.888-43.744 43.744zM958.144 659.648c0-23.2-18.816-41.984-41.984-41.984-23.232 0-42.016 18.816-42.016 41.984 0 23.232 42.016 86.656 42.016 86.656s41.984-63.456 41.984-86.656z" />
<glyph unicode="&#xe609;" glyph-name="chat2" d="M512 791.232c-222.048 0-402.080-133.984-402.080-299.264 0-99.328 65.024-187.328 165.12-241.76-0.288-0.864-79.744-145.44-79.744-145.44s242.656 92.544 243.328 92.928c23.808-3.296 48.352-4.96 73.408-4.96 222.048 0 402.080 133.984 402.080 299.232-0.032 165.28-180.064 299.264-402.112 299.264zM318.976 460c-17.664 0-32 14.336-32 32 0 17.696 14.336 32 32 32s32-14.304 32-32c0-17.664-14.304-32-32-32zM446.304 458.656c-17.664 0-32 14.336-32 32 0 17.696 14.336 32 32 32 17.696 0 32-14.304 32-32 0-17.664-14.304-32-32-32zM575.616 458.656c-17.664 0-32 14.336-32 32 0 17.696 14.336 32 32 32 17.696 0 32-14.304 32-32 0-17.664-14.304-32-32-32zM703.616 458.656c-17.664 0-32 14.336-32 32 0 17.696 14.336 32 32 32 17.696 0 32-14.304 32-32 0-17.664-14.304-32-32-32z" />
<glyph unicode="&#xe60a;" glyph-name="local_taxi" d="M214 490h596l-64 192h-468zM746 278c36 0 64 28 64 64s-28 64-64 64-64-28-64-64 28-64 64-64zM278 278c36 0 64 28 64 64s-28 64-64 64-64-28-64-64 28-64 64-64zM808 704l88-256v-342c0-24-18-42-42-42h-44c-24 0-42 18-42 42v44h-512v-44c0-24-18-42-42-42h-44c-24 0-42 18-42 42v342l88 256c8 26 34 42 62 42h106v86h256v-86h106c28 0 54-16 62-42z" />
<glyph unicode="&#xe60b;" glyph-name="paperplane" d="M1009.376 954.88c-5.312 3.424-11.36 5.12-17.376 5.12-6.176 0-12.384-1.76-17.76-5.376l-960-640c-9.888-6.56-15.328-18.112-14.048-29.952 1.216-11.808 8.896-22.016 19.936-26.368l250.368-100.192 117.728-206.016c5.632-9.888 16.096-16 27.424-16.128 0.128 0 0.224 0 0.352 0 11.232 0 21.664 5.952 27.424 15.552l66.464 110.816 310.24-124.064c3.808-1.536 7.808-2.272 11.872-2.272 5.44 0 10.816 1.376 15.68 4.128 8.448 4.736 14.24 13.056 15.872 22.624l160 960c2.080 12.576-3.488 25.184-14.176 32.128zM100.352 295.136l741.6 494.432-539.2-577.184c-2.848 1.696-5.376 3.936-8.512 5.184l-193.888 77.568zM326.048 189.888c-0.064 0.128-0.16 0.192-0.224 0.32l606.176 648.8-516.768-805.184-89.184 156.064zM806.944 12.512l-273.312 109.312c-6.496 2.56-13.248 3.424-19.936 3.808l420.864 652.416-127.616-765.536z" />
<glyph unicode="&#xe60c;" glyph-name="send" d="M85.76 64l895.573 384-895.573 384-0.427-298.667 640-85.333-640-85.333z" />
<glyph unicode="&#xe60d;" glyph-name="ruler" d="M729.549 937.574l-707.123-707.226c-29.901-29.901-29.901-78.746 0.102-108.749l163.072-163.174c29.901-29.901 78.899-30.003 108.749-0.102l707.226 707.226c29.901 29.952 29.901 78.899 0 108.8l-163.123 163.226c-30.054 30.003-78.95 29.85-108.902 0zM201.165 176.026l-38.861-38.861-97.075 97.126 38.861 38.861 97.075-97.126zM356.608 176.026l-38.861-38.861-174.848 174.848 38.861 38.912 174.848-174.899zM356.608 331.469l-38.861-38.861-97.178 97.075 38.912 38.912 97.126-97.126zM434.33 409.19l-38.861-38.861-97.075 97.075 38.861 38.912 97.075-97.126zM589.722 409.19l-38.861-38.861-174.797 174.797 38.861 38.861 174.797-174.797zM589.722 564.582l-38.861-38.861-97.075 97.075 38.861 38.861 97.075-97.075zM667.443 642.253l-38.861-38.861-97.126 97.126 38.861 38.861 97.126-97.126zM822.886 642.253l-38.912-38.861-174.797 174.848 38.861 38.912 174.848-174.899zM822.835 797.645l-38.861-38.861-97.075 97.178 38.861 38.81 97.075-97.126z" />
<glyph unicode="&#xe60e;" glyph-name="enter" d="M384 448h-320v128h320v128l192-192-192-192zM1024 960v-832l-384-192v192h-384v256h64v-192h320v576l256 128h-576v-256h-64v320z" />
<glyph unicode="&#xe60f;" glyph-name="exit" d="M768 320v128h-320v128h320v128l192-192zM704 384v-256h-320v-192l-384 192v832h704v-320h-64v256h-512l256-128v-576h256v192z" />
<glyph unicode="&#xe610;" glyph-name="pencil" d="M864 960c88.364 0 160-71.634 160-160 0-36.020-11.91-69.258-32-96l-64-64-224 224 64 64c26.742 20.090 59.978 32 96 32zM64 224l-64-288 288 64 592 592-224 224-592-592zM715.578 596.422l-448-448-55.156 55.156 448 448 55.156-55.156z" />
<glyph unicode="&#xe611;" glyph-name="image" d="M0 832v-832h1024v832h-1024zM960 64h-896v704h896v-704zM704 608c0 53.019 42.981 96 96 96s96-42.981 96-96c0-53.019-42.981-96-96-96s-96 42.981-96 96zM896 128h-768l192 512 256-320 128 96z" />
<glyph unicode="&#xe612;" glyph-name="images" d="M128 704v-640h896v640h-896zM960 170.666l-128 213.334-145.066-120.888-110.934 184.888-384-320v512h768v-469.334zM256 480c0 53.019 42.981 96 96 96s96-42.981 96-96c0-53.019-42.981-96-96-96s-96 42.981-96 96zM896 832h-896v-640h64v576h832z" />
<glyph unicode="&#xe613;" glyph-name="book" d="M896 832v-832h-672c-53.022 0-96 42.98-96 96 0 53.018 42.978 96 96 96h608v768h-640c-70.398 0-128-57.6-128-128v-768c0-70.4 57.602-128 128-128h768v896h-64zM256 128h576v-64h-576z" />
<glyph unicode="&#xe614;" glyph-name="books" d="M576.234 670.73l242.712 81.432 203.584-606.784-242.712-81.432zM0 64h256v704h-256v-704zM64 640h128v-64h-128v64zM320 64h256v704h-256v-704zM384 640h128v-64h-128v64z" />
<glyph unicode="&#xe615;" glyph-name="file" d="M864 960h-768c-52.8 0-96-43.2-96-96v-832c0-52.8 43.2-96 96-96h768c52.8 0 96 43.2 96 96v832c0 52.8-43.2 96-96 96zM832 64h-704v768h704v-768zM256 512h448v-64h-448zM256 384h448v-64h-448zM256 256h448v-64h-448zM256 640h448v-64h-448z" />
<glyph unicode="&#xe616;" glyph-name="copy" d="M832 704h-192v64l-192 192h-448v-768h384v-256h640v576l-192 192zM832 613.49l101.49-101.49h-101.49v101.49zM448 869.49l101.49-101.49h-101.49v101.49zM64 896h320v-192h192v-448h-512v640zM960 0h-512v192h192v448h128v-192h192v-448z" />
<glyph unicode="&#xe617;" glyph-name="stack" d="M1024 640l-512 256-512-256 512-256 512 256zM512 811.030l342.058-171.030-342.058-171.030-342.058 171.030 342.058 171.030zM921.444 499.278l102.556-51.278-512-256-512 256 102.556 51.278 409.444-204.722zM921.444 307.278l102.556-51.278-512-256-512 256 102.556 51.278 409.444-204.722z" />
<glyph unicode="&#xe618;" glyph-name="folder" d="M0 640h1024l-64-640h-896l-64 640zM928 768l32-64h-896l64 128h352l32-64h416z" />
<glyph unicode="&#xe619;" glyph-name="folder-open" d="M832 0l192 512h-832l-192-512zM128 576l-128-576v832h288l128-128h416v-128z" />
<glyph unicode="&#xe61a;" glyph-name="notebook" d="M898.36 896h-770.36v-128h-93.64c-17.6 0-34.36-12.528-34.36-30.128v-64c0-17.6 16.76-33.872 34.36-33.872h93.64v-64h-93.64c-17.6 0-34.36-12.528-34.36-30.128v-64c0-17.6 16.76-33.872 34.36-33.872h93.64v-64h-93.64c-17.6 0-34.36-12.528-34.36-30.128v-64c0-17.598 16.76-33.872 34.36-33.872h93.64v-64h-93.64c-17.6 0-34.36-12.528-34.36-30.128v-64c0-17.6 16.76-33.872 34.36-33.872h93.64v-128h770.36c35.348 0 61.64 30.526 61.64 65.872v832c0 35.346-26.292 62.128-61.64 62.128zM320 0h-128v64h34.36c17.6 0 29.64 16.272 29.64 33.872v64c0 17.602-12.042 30.128-29.64 30.128h-34.36v64h34.36c17.6 0 29.64 16.272 29.64 33.872v64c0 17.602-12.042 30.128-29.64 30.128h-34.36v64h34.36c17.6 0 29.64 16.272 29.64 33.872v64c0 17.602-12.042 30.128-29.64 30.128h-34.36v64h34.36c17.6 0 29.64 16.272 29.64 33.872v64c0 17.602-12.040 30.128-29.64 30.128h-34.36v64h128v-832z" />
<glyph unicode="&#xe61b;" glyph-name="disk" d="M896 960h-896v-1024h1024v896l-128 128zM512 832h128v-256h-128v256zM896 64h-768v768h64v-320h576v320h74.978l53.022-53.018v-714.982z" />
<glyph unicode="&#xe61c;" glyph-name="user" d="M256 640c0 141.385 114.615 256 256 256s256-114.615 256-256c0-141.385-114.615-256-256-256s-256 114.615-256 256zM768 320h-512c-141.384 0-256-114.618-256-256v-64h1024v64c0 141.382-114.616 256-256 256z" />
<glyph unicode="&#xe61d;" glyph-name="search" d="M992.262 88.604l-242.552 206.294c-25.074 22.566-51.89 32.926-73.552 31.926 57.256 67.068 91.842 154.078 91.842 249.176 0 212.078-171.922 384-384 384-212.076 0-384-171.922-384-384s171.922-384 384-384c95.098 0 182.108 34.586 249.176 91.844-1-21.662 9.36-48.478 31.926-73.552l206.294-242.552c35.322-39.246 93.022-42.554 128.22-7.356s31.892 92.898-7.354 128.22zM384 320c-141.384 0-256 114.616-256 256s114.616 256 256 256 256-114.616 256-256-114.614-256-256-256z" />
<glyph unicode="&#xe61e;" glyph-name="key" d="M704 960c-176.73 0-320-143.268-320-320 0-20.026 1.858-39.616 5.376-58.624l-389.376-389.376v-192c0-35.346 28.654-64 64-64h64v64h128v128h128v128h128l83.042 83.042c34.010-12.316 70.696-19.042 108.958-19.042 176.73 0 320 143.268 320 320s-143.27 320-320 320zM799.874 639.874c-53.020 0-96 42.98-96 96s42.98 96 96 96 96-42.98 96-96-42.98-96-96-96z" />
<glyph unicode="&#xe61f;" glyph-name="minus" d="M0 544v-192c0-17.672 14.328-32 32-32h960c17.672 0 32 14.328 32 32v192c0 17.672-14.328 32-32 32h-960c-17.672 0-32-14.328-32-32z" />
<glyph unicode="&#xe620;" glyph-name="plus" d="M992 576h-352v352c0 17.672-14.328 32-32 32h-192c-17.672 0-32-14.328-32-32v-352h-352c-17.672 0-32-14.328-32-32v-192c0-17.672 14.328-32 32-32h352v-352c0-17.672 14.328-32 32-32h192c17.672 0 32 14.328 32 32v352h352c17.672 0 32 14.328 32 32v192c0 17.672-14.328 32-32 32z" />
<glyph unicode="&#xe621;" glyph-name="arrow-up" d="M512.002 960l-512.002-512h320v-511.998l384-0.002v512h320z" />
<glyph unicode="&#xe622;" glyph-name="arrow-right" d="M1024 448l-512 512v-320h-511.998l-0.002-384h512v-320z" />
<glyph unicode="&#xe623;" glyph-name="arrow-down" d="M512-64l512 512h-320v511.998l-384 0.002v-512h-320z" />
<glyph unicode="&#xe624;" glyph-name="arrow-left" d="M0 448l512-512v320h511.998l0.002 384h-512v320z" />
<glyph unicode="&#xe625;" glyph-name="bold" d="M707.88 475.348c37.498 44.542 60.12 102.008 60.12 164.652 0 141.16-114.842 256-256 256h-320v-896h384c141.158 0 256 114.842 256 256 0 92.956-49.798 174.496-124.12 219.348zM384 768h101.5c55.968 0 101.5-57.42 101.5-128s-45.532-128-101.5-128h-101.5v256zM543 128h-159v256h159c58.45 0 106-57.42 106-128s-47.55-128-106-128z" />
<glyph unicode="&#xe626;" glyph-name="underline" d="M704 896h128v-416c0-159.058-143.268-288-320-288-176.73 0-320 128.942-320 288v416h128v-416c0-40.166 18.238-78.704 51.354-108.506 36.896-33.204 86.846-51.494 140.646-51.494s103.75 18.29 140.646 51.494c33.116 29.802 51.354 68.34 51.354 108.506v416zM192 128h640v-128h-640z" />
<glyph unicode="&#xe627;" glyph-name="italic" d="M896 896v-64h-128l-320-768h128v-64h-448v64h128l320 768h-128v64z" />
<glyph unicode="&#xe628;" glyph-name="paragraph-left" d="M0 896h1024v-128h-1024zM0 704h640v-128h-640zM0 320h640v-128h-640zM0 512h1024v-128h-1024zM0 128h1024v-128h-1024z" />
<glyph unicode="&#xe629;" glyph-name="paragraph-center" d="M0 896h1024v-128h-1024zM192 704h640v-128h-640zM192 320h640v-128h-640zM0 512h1024v-128h-1024zM0 128h1024v-128h-1024z" />
<glyph unicode="&#xe62a;" glyph-name="paragraph-right" d="M0 896h1024v-128h-1024zM384 704h640v-128h-640zM384 320h640v-128h-640zM0 512h1024v-128h-1024zM0 128h1024v-128h-1024z" />
<glyph unicode="&#xe62b;" glyph-name="list" d="M384 896h640v-128h-640v128zM384 512h640v-128h-640v128zM384 128h640v-128h-640v128zM0 832c0 70.692 57.308 128 128 128s128-57.308 128-128c0-70.692-57.308-128-128-128s-128 57.308-128 128zM0 448c0 70.692 57.308 128 128 128s128-57.308 128-128c0-70.692-57.308-128-128-128s-128 57.308-128 128zM0 64c0 70.692 57.308 128 128 128s128-57.308 128-128c0-70.692-57.308-128-128-128s-128 57.308-128 128z" />
<glyph unicode="&#xe62c;" glyph-name="numbered-list" d="M384 128h640v-128h-640zM384 512h640v-128h-640zM384 896h640v-128h-640zM192 960v-256h-64v192h-64v64zM128 434v-50h128v-64h-192v146l128 60v50h-128v64h192v-146zM256 256v-320h-192v64h128v64h-128v64h128v64h-128v64z" />
<glyph unicode="&#xe62d;" glyph-name="menu" d="M0 576h704v-128h-704v128zM0 768h704v-128h-704v128zM0 384h704v-128h-704v128zM0 192h704v-128h-704v128zM768 384l128-192 128 192h-256zM1024 448l-128 192-128-192h256z" />
<glyph unicode="&#xe62e;" glyph-name="menu2" d="M64 768h896v-192h-896zM64 512h896v-192h-896zM64 256h896v-192h-896z" />
<glyph unicode="&#xe62f;" glyph-name="print" d="M256 896h512v-128h-512zM960 704h-896c-35.2 0-64-28.8-64-64v-320c0-35.2 28.796-64 64-64h192v-256h512v256h192c35.2 0 64 28.8 64 64v320c0 35.2-28.8 64-64 64zM704 64h-384v320h384v-320zM974.4 608c0-25.626-20.774-46.4-46.398-46.4-25.626 0-46.402 20.774-46.402 46.4s20.776 46.4 46.402 46.4c25.626 0 46.398-20.774 46.398-46.4z" />
<glyph unicode="&#xe630;" glyph-name="remove" d="M800 832h-576c-53.020 0-96-42.98-96-96v-32h768v32c0 53.020-42.98 96-96 96zM632.32 896l14.116-101h-268.872l14.114 101h240.642zM640 960h-256c-26.4 0-50.99-21.392-54.642-47.538l-18.714-133.924c-3.654-26.146 14.956-47.538 41.356-47.538h320c26.4 0 45.010 21.392 41.358 47.538l-18.714 133.924c-3.654 26.146-28.244 47.538-54.644 47.538v0zM816 640h-608c-35.2 0-61.392-28.682-58.206-63.738l52.412-576.526c3.186-35.054 34.594-63.736 69.794-63.736h480c35.2 0 66.608 28.682 69.794 63.736l52.41 576.526c3.188 35.056-23.004 63.738-58.204 63.738zM384 64h-96l-32 448h128v-448zM576 64h-128v448h128v-448zM736 64h-96v448h128l-32-448z" />
<glyph unicode="&#xe631;" glyph-name="link" d="M953.396 885.358l-4.028 4.042c-94.148 94.134-248.194 94.134-342.326 0l-218.106-218.136c-94.134-94.132-94.134-248.176 0-342.31l4.026-4.026c7.832-7.848 16.146-14.924 24.736-21.458l79.848 79.85c-9.302 5.494-18.126 12.072-26.116 20.060l-4.042 4.042c-51.114 51.098-51.114 134.272 0 185.39l218.128 218.112c51.116 51.118 134.274 51.118 185.386 0l4.042-4.024c51.1-51.116 51.1-134.292 0-185.39l-98.686-98.686c17.132-42.308 25.248-87.4 24.538-132.386l152.604 152.604c94.134 94.136 94.134 248.178-0.004 342.316zM631.042 571.066c-7.832 7.832-16.146 14.922-24.736 21.44l-79.848-79.832c9.304-5.496 18.126-12.074 26.116-20.062l4.042-4.040c51.116-51.116 51.116-134.272 0-185.388l-218.13-218.134c-51.118-51.102-134.276-51.102-185.388 0l-4.042 4.042c-51.098 51.12-51.098 134.276 0 185.388l98.688 98.686c-17.134 42.306-25.246 87.402-24.538 132.386l-152.602-152.598c-94.136-94.132-94.136-248.178 0-342.324l4.026-4.032c94.152-94.128 248.192-94.128 342.328 0l218.11 218.118c94.134 94.132 94.134 248.194 0 342.326l-4.026 4.024z" />
<glyph unicode="&#xe632;" glyph-name="scissors" d="M890.774 250.846c-45.654 45.556-103.728 69.072-157.946 69.072h-29.112l-63.904 64.008 255.62 256.038c63.904 64.010 63.904 192.028 0 256.038l-383.43-384.056-383.432 384.054c-63.904-64.008-63.904-192.028 0-256.038l255.622-256.034-63.906-64.008h-29.114c-54.22 0-112.292-23.518-157.948-69.076-81.622-81.442-92.65-202.484-24.63-270.35 29.97-29.902 70.288-44.494 112.996-44.494 54.216 0 112.29 23.514 157.946 69.072 53.584 53.464 76.742 124 67.084 185.348l65.384 65.488 65.376-65.488c-9.656-61.348 13.506-131.882 67.084-185.348 45.662-45.558 103.732-69.072 157.948-69.072 42.708 0 83.024 14.592 112.994 44.496 68.020 67.866 56.988 188.908-24.632 270.35zM353.024 114.462c-7.698-17.882-19.010-34.346-33.626-48.926-14.636-14.604-31.172-25.918-49.148-33.624-16.132-6.916-32.96-10.568-48.662-10.568-15.146 0-36.612 3.402-52.862 19.612-16.136 16.104-19.52 37.318-19.52 52.288 0 15.542 3.642 32.21 10.526 48.212 7.7 17.884 19.014 34.346 33.626 48.926 14.634 14.606 31.172 25.914 49.15 33.624 16.134 6.914 32.96 10.568 48.664 10.568 15.146 0 36.612-3.4 52.858-19.614 16.134-16.098 19.522-37.316 19.522-52.284 0.002-15.542-3.638-32.216-10.528-48.214zM512.004 293.404c-49.914 0-90.376 40.532-90.376 90.526 0 49.992 40.462 90.52 90.376 90.52s90.372-40.528 90.372-90.52c0-49.998-40.46-90.526-90.372-90.526zM855.272 40.958c-16.248-16.208-37.712-19.612-52.86-19.612-15.704 0-32.53 3.652-48.666 10.568-17.972 7.706-34.508 19.020-49.142 33.624-14.614 14.58-25.926 31.042-33.626 48.926-6.886 15.998-10.526 32.672-10.526 48.212 0 14.966 3.384 36.188 19.52 52.286 16.246 16.208 37.712 19.614 52.86 19.614 15.7 0 32.53-3.654 48.66-10.568 17.978-7.708 34.516-19.018 49.15-33.624 14.61-14.58 25.924-31.042 33.626-48.926 6.884-15.998 10.526-32.67 10.526-48.212-0.002-14.97-3.39-36.186-19.522-52.288z" />
<glyph unicode="&#xe633;" glyph-name="close" d="M1014.662 137.34c-0.004 0.004-0.008 0.008-0.012 0.010l-310.644 310.65 310.644 310.65c0.004 0.004 0.008 0.006 0.012 0.010 3.344 3.346 5.762 7.254 7.312 11.416 4.246 11.376 1.824 24.682-7.324 33.83l-146.746 146.746c-9.148 9.146-22.45 11.566-33.828 7.32-4.16-1.55-8.070-3.968-11.418-7.31 0-0.004-0.004-0.006-0.008-0.010l-310.648-310.652-310.648 310.65c-0.004 0.004-0.006 0.006-0.010 0.010-3.346 3.342-7.254 5.76-11.414 7.31-11.38 4.248-24.682 1.826-33.83-7.32l-146.748-146.748c-9.148-9.148-11.568-22.452-7.322-33.828 1.552-4.16 3.97-8.072 7.312-11.416 0.004-0.002 0.006-0.006 0.010-0.010l310.65-310.648-310.65-310.652c-0.002-0.004-0.006-0.006-0.008-0.010-3.342-3.346-5.76-7.254-7.314-11.414-4.248-11.376-1.826-24.682 7.322-33.83l146.748-146.746c9.15-9.148 22.452-11.568 33.83-7.322 4.16 1.552 8.070 3.97 11.416 7.312 0.002 0.004 0.006 0.006 0.010 0.010l310.648 310.65 310.648-310.65c0.004-0.002 0.008-0.006 0.012-0.008 3.348-3.344 7.254-5.762 11.414-7.314 11.378-4.246 24.684-1.826 33.828 7.322l146.746 146.748c9.148 9.148 11.57 22.454 7.324 33.83-1.552 4.16-3.97 8.068-7.314 11.414z" />
<glyph unicode="&#xe634;" glyph-name="pencil2" d="M384 320l128 64 448 448-64 64-448-448-64-128zM289.3 92.902c-31.632 66.728-65.666 100.762-132.396 132.394l99.096 272.792 128 77.912 384 384h-192l-384-384-192-640 640 192 384 384v192l-384-384-77.912-128z" />
<glyph unicode="&#xe635;" glyph-name="undo" d="M512 896c-141.384 0-269.376-57.32-362.032-149.978l-149.968 149.978v-384h384l-143.532 143.522c69.496 69.492 165.492 112.478 271.532 112.478 212.068 0 384-171.924 384-384 0-114.696-50.292-217.636-130.018-288l84.666-96c106.302 93.816 173.352 231.076 173.352 384 0 282.77-229.23 512-512 512z" />
<glyph unicode="&#xe636;" glyph-name="redo" d="M0 384c0-152.924 67.048-290.184 173.35-384l84.666 96c-79.726 70.364-130.016 173.304-130.016 288 0 212.076 171.93 384 384 384 106.042 0 202.038-42.986 271.53-112.478l-143.53-143.522h384v384l-149.97-149.978c-92.654 92.658-220.644 149.978-362.030 149.978-282.77 0-512-229.23-512-512z" />
<glyph unicode="&#xe637;" glyph-name="file-xml" d="M448 384l-64 64-192-192 192-192 64 64-128 128zM576 128l64-64 192 192-192 192-64-64 128-128zM903.432 760.57l-142.864 142.862c-31.112 31.112-92.568 56.568-136.568 56.568h-480c-44 0-80-36-80-80v-864c0-44 36-80 80-80h736c44 0 80 36 80 80v608c0 44-25.456 105.458-56.568 136.57zM858.178 715.314c3.13-3.13 6.25-6.974 9.28-11.314h-163.458v163.456c4.34-3.030 8.184-6.15 11.314-9.28l142.864-142.862zM896 16c0-8.672-7.328-16-16-16h-736c-8.672 0-16 7.328-16 16v864c0 8.672 7.328 16 16 16h480c4.832 0 10.254-0.61 16-1.704v-254.296h254.296c1.094-5.746 1.704-11.166 1.704-16v-608z" />
<glyph unicode="&#xe638;" glyph-name="file-css" d="M384 348.554v114.226c0 15.128 6.696 29.436 18.854 40.286 12.16 10.848 28.192 16.826 45.146 16.826v57.11c-70.4 0-128-51.4-128-114.222v-85.666c0-15.772-14.328-28.558-32-28.558h-32v-57.11h32c17.674 0 32-12.79 32-28.558v-85.676c0-62.814 57.6-114.214 128-114.214v57.112c-16.954 0-32.988 5.976-45.146 16.826-12.158 10.852-18.854 25.154-18.854 40.278v114.234c0 15.77-14.328 28.554-32 28.554 17.674-0.002 32 12.788 32 28.552zM640 291.446v-114.234c0-15.124-6.696-29.426-18.854-40.278-12.158-10.85-28.19-16.826-45.146-16.826v-57.112c70.402 0 128 51.4 128 114.214v85.676c0 15.772 14.328 28.558 32 28.558h32v57.11h-32c-17.672 0-32 12.79-32 28.558v85.668c0 62.824-57.598 114.222-128 114.222v-57.11c16.958 0 32.988-5.978 45.146-16.83 12.16-10.848 18.854-25.156 18.854-40.284v-114.228c0-15.766 14.328-28.552 32-28.552-17.672 0.002-32-12.788-32-28.552zM903.432 760.57l-142.864 142.862c-31.112 31.112-92.568 56.568-136.568 56.568h-480c-44 0-80-36-80-80v-864c0-44 36-80 80-80h736c44 0 80 36 80 80v608c0 44-25.456 105.458-56.568 136.57zM858.178 715.314c3.13-3.13 6.25-6.974 9.28-11.314h-163.458v163.456c4.34-3.030 8.184-6.15 11.314-9.28l142.864-142.862zM896 16c0-8.672-7.328-16-16-16h-736c-8.672 0-16 7.328-16 16v864c0 8.672 7.328 16 16 16h480c4.832 0 10.254-0.61 16-1.704v-254.296h254.296c1.094-5.746 1.704-11.166 1.704-16v-608z" />
<glyph unicode="&#xe639;" glyph-name="html5" d="M60.538 960l82.144-921.63 368.756-102.37 369.724 102.524 82.3 921.476h-902.924zM784.63 658.572h-432.54l10.302-115.75h411.968l-31.042-347.010-231.844-64.254-231.572 64.254-15.83 177.512h113.494l8.048-90.232 125.862-33.916 0.278 0.078 125.934 33.992 13.070 146.55h-391.74l-30.494 341.8h566.214l-10.108-113.024z" />
<glyph unicode="&#xe63a;" glyph-name="css3" d="M152.388 911.478l-34.36-171.926h699.748l-21.884-111.054h-700.188l-33.892-171.898h699.684l-39.018-196.064-282.012-93.422-244.4 93.422 16.728 85.042h-171.898l-40.896-206.352 404.226-154.704 466.006 154.704 153.768 772.252z" />
<glyph unicode="&#xe63b;" glyph-name="mail" d="M853.31 960h-682.62c-93.88 0-170.69-76.784-170.69-170.658v-682.656c0-93.876 76.81-170.686 170.69-170.686h682.622c93.938 0 170.688 76.81 170.688 170.686v682.656c0 93.874-76.75 170.658-170.69 170.658zM256 704h512c9.138 0 18.004-1.962 26.144-5.662l-282.144-329.168-282.144 329.17c8.14 3.696 17.006 5.66 26.144 5.66zM192 256v384c0 1.34 0.056 2.672 0.14 4l187.664-218.94-185.598-185.6c-1.444 5.338-2.206 10.886-2.206 16.54zM768 192h-512c-5.654 0-11.202 0.762-16.54 2.206l182.118 182.118 90.422-105.496 90.424 105.494 182.116-182.118c-5.34-1.442-10.886-2.204-16.54-2.204zM832 256c0-5.654-0.762-11.2-2.206-16.54l-185.598 185.598 187.664 218.942c0.084-1.328 0.14-2.66 0.14-4v-384z" />
<glyph unicode="&#xe63c;" glyph-name="indent-increase" d="M0 896h1024v-128h-1024zM384 704h640v-128h-640zM384 512h640v-128h-640zM384 320h640v-128h-640zM0 128h1024v-128h-1024zM0 256v384l256-192z" />
<glyph unicode="&#xe63d;" glyph-name="indent-decrease" d="M0 896h1024v-128h-1024zM384 704h640v-128h-640zM384 512h640v-128h-640zM384 320h640v-128h-640zM0 128h1024v-128h-1024zM256 640v-384l-256 192z" />
<glyph unicode="&#xe63e;" glyph-name="table" d="M0 768v-704h1024v704h-1024zM384 320v128h256v-128h-256zM640 256v-128h-256v128h256zM640 640v-128h-256v128h256zM320 640v-128h-256v128h256zM64 448h256v-128h-256v128zM704 448h256v-128h-256v128zM704 512v128h256v-128h-256zM64 256h256v-128h-256v128zM704 128v128h256v-128h-256z" />
<glyph unicode="&#xe63f;" glyph-name="paste" d="M704 832h-128v64c0 35.2-28.8 64-64 64h-128c-35.204 0-64-28.8-64-64v-64h-128v-128h512v128zM512 832h-128v63.886c0.034 0.038 0.072 0.078 0.114 0.114h127.768c0.042-0.036 0.082-0.076 0.118-0.114v-63.886zM832 640v160c0 17.6-14.4 32-32 32h-64v-64h32v-128h-384v-448h-256v576h32v64h-64c-17.602 0-32-14.4-32-32v-640c0-17.6 14.398-32 32-32h288v-192h448l192 192v512h-192zM832 26.51v101.49h101.49l-101.49-101.49zM960 192h-192v-192h-320v576h512v-384z" />
<glyph unicode="&#xe640;" glyph-name="spoon-knife" d="M224 960c-106.040 0-192-100.288-192-224 0-105.924 63.022-194.666 147.706-217.998l-31.788-518.124c-2.154-35.132 24.882-63.878 60.082-63.878h32c35.2 0 62.236 28.746 60.082 63.878l-31.788 518.124c84.684 23.332 147.706 112.074 147.706 217.998 0 123.712-85.96 224-192 224zM869.334 960l-53.334-320h-40l-26.666 320h-26.668l-26.666-320h-40l-53.334 320h-26.666v-416c0-17.672 14.326-32 32-32h83.338l-31.42-512.122c-2.154-35.132 24.882-63.878 60.082-63.878h32c35.2 0 62.236 28.746 60.082 63.878l-31.42 512.122h83.338c17.674 0 32 14.328 32 32v416h-26.666z" />
<glyph unicode="&#xe641;" glyph-name="opt" d="M928 128h-256c-12.646 0-24.106 7.448-29.242 19.004l-247.554 556.996h-299.204c-17.672 0-32 14.328-32 32s14.328 32 32 32h320c12.646 0 24.106-7.448 29.242-19.004l247.556-556.996h235.202c17.674 0 32-14.326 32-32s-14.326-32-32-32zM928 704h-320c-17.674 0-32 14.328-32 32s14.326 32 32 32h320c17.674 0 32-14.328 32-32s-14.326-32-32-32z" />
<glyph unicode="&#xe642;" glyph-name="users" horiz-adv-x="1152" d="M768 189.388v52.78c70.498 39.728 128 138.772 128 237.832 0 159.058 0 288-192 288s-192-128.942-192-288c0-99.060 57.502-198.104 128-237.832v-52.78c-217.102-17.748-384-124.42-384-253.388h896c0 128.968-166.898 235.64-384 253.388zM327.196 164.672c55.31 36.15 124.080 63.636 199.788 80.414-15.054 17.784-28.708 37.622-40.492 59.020-30.414 55.234-46.492 116.058-46.492 175.894 0 86.042 0 167.31 30.6 233.762 29.706 64.504 83.128 104.496 159.222 119.488-16.914 76.48-61.94 126.75-181.822 126.75-192 0-192-128.942-192-288 0-99.060 57.502-198.104 128-237.832v-52.78c-217.102-17.748-384-124.42-384-253.388h279.006c14.518 12.91 30.596 25.172 48.19 36.672z" />
<glyph unicode="&#xe643;" glyph-name="compass" d="M544.010-64.004c-2.296 0-4.622 0.25-6.94 0.764-14.648 3.25-25.070 16.238-25.070 31.24v480h-480c-15.002 0-27.992 10.422-31.24 25.070-3.25 14.646 4.114 29.584 17.708 35.928l960 448c12.196 5.688 26.644 3.144 36.16-6.372 9.516-9.514 12.060-23.966 6.372-36.16l-448-960c-5.342-11.44-16.772-18.47-28.99-18.47zM176.242 512h367.758c17.674 0 32-14.328 32-32v-367.758l349.79 749.546-749.548-349.788z" />
<glyph unicode="&#xe644;" glyph-name="wrench" d="M1002.934 142.124l-460.552 394.76c21.448 40.298 33.618 86.282 33.618 135.116 0 159.058-128.942 288-288 288-29.094 0-57.172-4.332-83.646-12.354l166.39-166.39c24.89-24.89 24.89-65.62 0-90.51l-101.49-101.49c-24.89-24.89-65.62-24.89-90.51 0l-166.39 166.39c-8.022-26.474-12.354-54.552-12.354-83.646 0-159.058 128.942-288 288-288 48.834 0 94.818 12.17 135.116 33.62l394.76-460.552c22.908-26.724 62.016-28.226 86.904-3.338l101.492 101.492c24.888 24.888 23.386 63.994-3.338 86.902z" />
<glyph unicode="&#xe645;" glyph-name="cogs" d="M363.722 237.948l41.298 57.816-45.254 45.256-57.818-41.296c-10.722 5.994-22.204 10.774-34.266 14.192l-11.682 70.084h-64l-11.68-70.086c-12.062-3.418-23.544-8.198-34.266-14.192l-57.818 41.298-45.256-45.256 41.298-57.816c-5.994-10.72-10.774-22.206-14.192-34.266l-70.086-11.682v-64l70.086-11.682c3.418-12.060 8.198-23.544 14.192-34.266l-41.298-57.816 45.254-45.256 57.818 41.296c10.722-5.994 22.204-10.774 34.266-14.192l11.682-70.084h64l11.68 70.086c12.062 3.418 23.544 8.198 34.266 14.192l57.818-41.296 45.254 45.256-41.298 57.816c5.994 10.72 10.774 22.206 14.192 34.266l70.088 11.68v64l-70.086 11.682c-3.418 12.060-8.198 23.544-14.192 34.266zM224 96c-35.348 0-64 28.654-64 64s28.652 64 64 64 64-28.654 64-64-28.652-64-64-64zM1024 576v64l-67.382 12.25c-1.242 8.046-2.832 15.978-4.724 23.79l57.558 37.1-24.492 59.128-66.944-14.468c-4.214 6.91-8.726 13.62-13.492 20.13l39.006 56.342-45.256 45.254-56.342-39.006c-6.512 4.766-13.22 9.276-20.13 13.494l14.468 66.944-59.128 24.494-37.1-57.558c-7.812 1.892-15.744 3.482-23.79 4.724l-12.252 67.382h-64l-12.252-67.382c-8.046-1.242-15.976-2.832-23.79-4.724l-37.098 57.558-59.128-24.492 14.468-66.944c-6.91-4.216-13.62-8.728-20.13-13.494l-56.342 39.006-45.254-45.254 39.006-56.342c-4.766-6.51-9.278-13.22-13.494-20.13l-66.944 14.468-24.492-59.128 57.558-37.1c-1.892-7.812-3.482-15.742-4.724-23.79l-67.384-12.252v-64l67.382-12.25c1.242-8.046 2.832-15.978 4.724-23.79l-57.558-37.1 24.492-59.128 66.944 14.468c4.216-6.91 8.728-13.618 13.494-20.13l-39.006-56.342 45.254-45.256 56.342 39.006c6.51-4.766 13.22-9.276 20.13-13.492l-14.468-66.944 59.128-24.492 37.102 57.558c7.81-1.892 15.742-3.482 23.788-4.724l12.252-67.384h64l12.252 67.382c8.044 1.242 15.976 2.832 23.79 4.724l37.1-57.558 59.128 24.492-14.468 66.944c6.91 4.216 13.62 8.726 20.13 13.492l56.342-39.006 45.256 45.256-39.006 56.342c4.766 6.512 9.276 13.22 13.492 20.13l66.944-14.468 24.492 59.13-57.558 37.1c1.892 7.812 3.482 15.742 4.724 23.79l67.382 12.25zM672 468.8c-76.878 0-139.2 62.322-139.2 139.2s62.32 139.2 139.2 139.2 139.2-62.322 139.2-139.2c0-76.878-62.32-139.2-139.2-139.2z" />
<glyph unicode="&#xe646;" glyph-name="truck" d="M1024 384l-128 256h-192v128c0 35.2-28.8 64-64 64h-576c-35.2 0-64-28.8-64-64v-512l64-64h81.166c-10.898-18.832-17.166-40.678-17.166-64 0-70.692 57.308-128 128-128s128 57.308 128 128c0 23.322-6.268 45.168-17.166 64h354.334c-10.898-18.832-17.168-40.678-17.168-64 0-70.692 57.308-128 128-128s128 57.308 128 128c0 23.322-6.27 45.168-17.168 64h81.168v192zM704 384v192h132.668l96-192h-228.668z" />
<glyph unicode="&#xe647;" glyph-name="phone" d="M704 320c-64-64-64-128-128-128s-128 64-192 128-128 128-128 192 64 64 128 128-128 256-192 256-192-192-192-192c0-128 131.5-387.5 256-512s384-256 512-256c0 0 192 128 192 192s-192 256-256 192z" />
<glyph unicode="&#xe648;" glyph-name="bell" d="M1025.5 160c0 288-256 224-256 448 0 18.56-1.788 34.42-5.048 47.928-16.83 113.018-92.156 203.72-189.772 231.36 0.866 3.948 1.32 8.032 1.32 12.21 0 33.278-28.8 60.502-64 60.502s-64-27.224-64-60.5c0-4.18 0.456-8.264 1.32-12.21-109.47-30.998-190.914-141.298-193.254-273.442-0.040-1.92-0.066-3.864-0.066-5.846 0-224.002-256-160.002-256-448.002 0-76.226 170.59-139.996 398.97-156.080 21.524-40.404 64.056-67.92 113.030-67.92s91.508 27.516 113.030 67.92c228.38 16.084 398.97 79.854 398.97 156.080 0 0.228-0.026 0.456-0.028 0.682l1.528-0.682zM826.246 105.904c-54.23-14.47-118.158-24.876-186.768-30.648-5.704 65.418-60.582 116.744-127.478 116.744s-121.774-51.326-127.478-116.744c-68.608 5.772-132.538 16.178-186.768 30.648-74.63 19.914-110.31 42.19-123.368 54.096 13.058 11.906 48.738 34.182 123.368 54.096 86.772 23.152 198.372 35.904 314.246 35.904s227.474-12.752 314.246-35.904c74.63-19.914 110.31-42.19 123.368-54.096-13.058-11.906-48.738-34.182-123.368-54.096z" />
<glyph unicode="&#xe649;" glyph-name="aid-kit" d="M896 704h-192v128c0 35.2-28.8 64-64 64h-256c-35.2 0-64-28.8-64-64v-128h-192c-70.4 0-128-57.6-128-128v-512c0-70.4 57.6-128 128-128h768c70.4 0 128 57.6 128 128v512c0 70.4-57.6 128-128 128zM384 832h256v-128h-256v128zM768 256h-192v-192h-128v192h-192v128h192v192h128v-192h192v-128z" />
<glyph unicode="&#xe64a;" glyph-name="fire" d="M321.008-64c-68.246 142.008-31.902 223.378 20.55 300.044 57.44 83.956 72.244 167.066 72.244 167.066s45.154-58.7 27.092-150.508c79.772 88.8 94.824 230.28 82.782 284.464 180.314-126.012 257.376-398.856 153.522-601.066 552.372 312.532 137.398 780.172 65.154 832.85 24.082-52.676 28.648-141.85-20-185.126-82.352 312.276-285.972 376.276-285.972 376.276 24.082-161.044-87.296-337.144-194.696-468.73-3.774 64.216-7.782 108.528-41.55 169.98-7.58-116.656-96.732-211.748-120.874-328.628-32.702-158.286 24.496-274.18 241.748-396.622z" />
<glyph unicode="&#xe900;" glyph-name="assistance" d="M746.625 741.491h-12.068c30.838 21.797 51.035 57.696 51.035 98.246 0 66.314-53.948 120.262-120.262 120.262s-120.262-53.948-120.262-120.262c0-40.55 20.193-76.45 51.035-98.246h-196.821c30.838 21.797 51.035 57.696 51.035 98.246 0 66.314-53.942 120.262-120.255 120.262s-120.262-53.948-120.262-120.262c0-42.359 22.036-79.644 55.22-101.075-42.318-10.437-73.803-48.696-73.803-94.191v-301.678c0-18.018 14.605-32.623 32.623-32.623h3.098v-341.551c0-18.018 14.605-32.623 32.623-32.623h140.992c18.018 0 32.623 14.605 32.623 32.623v341.551h3.098c18.018 0 32.623 14.605 32.623 32.623v239.061h57.583v-239.061c0-18.018 14.605-32.623 32.623-32.623h3.098v-341.551c0-18.018 14.605-32.623 32.623-32.623h140.992c18.018 0 32.623 14.605 32.623 32.623v341.551h3.098c18.018 0 32.623 14.605 32.623 32.623v238.637c0 0.233-0.014 0.462-0.017 0.691 16.13 1.973 28.629 15.693 28.629 32.357v40.855c0.007 47.506-38.645 86.158-86.151 86.158zM665.33 894.753c30.332 0 55.015-24.676 55.015-55.015s-24.683-55.015-55.015-55.015c-30.332 0-55.015 24.676-55.015 55.015s24.683 55.015 55.015 55.015zM330.061 894.753c30.332 0 55.015-24.676 55.015-55.015s-24.683-55.015-55.015-55.015c-30.332 0-55.015 24.676-55.015 55.015s24.683 55.015 55.015 55.015zM367.934 1.247h-75.745v308.928h75.745v-308.928zM703.203 1.247h-75.745v315.408h75.745v-315.408zM738.928 381.741c-1.022 0.099-2.052 0.157-3.098 0.157h-140.992c-1.046 0-2.079-0.062-3.098-0.157v200.114h147.182c-0.003-0.14 0.007-0.28 0.007-0.424v-199.69zM767.54 647.106h-331.258c-18.018 0-32.627-14.605-32.627-32.623v-239.061h-147.189v269.051c0 17.519 14.257 31.775 31.775 31.775h458.387c11.534 0 20.915-9.38 20.915-20.915v-8.228z" />
<glyph unicode="&#xe901;" glyph-name="help" d="M668.896 191.552l94.688 127.488 111.2 106.24c0 0-37.056 44.192-82.88 44.192-20.576 0-39.424-5.888-56.64-17.664-17.12-11.744-32.736-29.376-46.816-52.96-19.68-6.88-35.008-13.44-46.016-19.68-2.432 24.512-5.376 42.656-8.8 54.4l63.872 247.936c15.136 59.776 18.752 89.984-17.248 105.984s-72.8-28.128-91.744-84.384l-60.576-191.456 1.824 246.208c0 60.448-19.072 90.656-57.216 90.656-38.528 0-57.76-26.784-57.76-80.32v-246.144l-61.952 215.616c-15.36 38.144-42.4 75.712-78.4 63.712s-34.304-71.232-24.32-109.152l55.2-210.208-89.024 147.040c-27.232 47.2-74.208 56.32-84.832 45.312-16.928-17.568-28.256-54.944 2.464-108.608l98.208-170.976 87.68-303.744v-59.040h256v76.128c29.728 20.384 55.424 48.192 93.088 83.424v0z" />
<glyph unicode="&#xe902;" glyph-name="press" d="M899.522 960h-775.044c-10.376 0-18.788-8.412-18.788-18.79v-986.422c0-10.376 8.412-18.79 18.788-18.79h775.046c10.376 0 18.788 8.412 18.788 18.79v986.422c0 10.378-8.412 18.79-18.79 18.79zM880.734-26.422h-737.468v948.844h737.468v-948.844zM199.634 723.964h624.734c10.376 0 18.79 8.412 18.79 18.79v123.302c0 10.376-8.412 18.788-18.79 18.788h-624.734c-10.376 0-18.788-8.412-18.788-18.788v-123.302c-0.002-10.378 8.41-18.79 18.788-18.79zM218.422 847.266h587.156v-85.724h-587.156v85.724zM199.634 648.808h624.734c10.376 0 18.79 8.412 18.79 18.788s-8.412 18.788-18.79 18.788h-624.734c-10.376 0-18.788-8.412-18.788-18.788s8.41-18.788 18.788-18.788zM199.634 559.56h157.79c10.376 0 18.788 8.412 18.788 18.79s-8.412 18.788-18.788 18.788h-157.79c-10.376 0-18.788-8.412-18.788-18.788s8.41-18.79 18.788-18.79zM199.634 258.936h157.79c10.376 0 18.788 8.412 18.788 18.788v225.468c0 10.376-8.412 18.79-18.788 18.79h-157.79c-10.376 0-18.788-8.412-18.788-18.79v-225.468c-0.002-10.376 8.41-18.788 18.788-18.788zM218.422 484.404h120.212v-187.89h-120.212v187.89zM199.634 108.624h157.79c10.376 0 18.788 8.412 18.788 18.788s-8.412 18.788-18.788 18.788h-157.79c-10.376 0-18.788-8.412-18.788-18.788s8.41-18.788 18.788-18.788zM199.634 183.78h157.79c10.376 0 18.788 8.412 18.788 18.79s-8.412 18.788-18.788 18.788h-157.79c-10.376 0-18.788-8.412-18.788-18.788s8.41-18.79 18.788-18.79zM199.634 33.468h157.79c10.376 0 18.788 8.412 18.788 18.788s-8.412 18.79-18.788 18.79h-157.79c-10.376 0-18.788-8.412-18.788-18.79s8.41-18.788 18.788-18.788zM590.896 597.138h-157.79c-10.376 0-18.788-8.412-18.788-18.788s8.412-18.79 18.788-18.79h157.79c10.376 0 18.79 8.412 18.79 18.79s-8.414 18.788-18.79 18.788zM590.896 446.826h-157.79c-10.376 0-18.788-8.412-18.788-18.788s8.412-18.79 18.788-18.79h157.79c10.376 0 18.79 8.412 18.79 18.79s-8.414 18.788-18.79 18.788zM590.896 521.982h-157.79c-10.376 0-18.788-8.412-18.788-18.79s8.412-18.788 18.788-18.788h157.79c10.376 0 18.79 8.412 18.79 18.788s-8.414 18.79-18.79 18.79zM590.896 371.67h-157.79c-10.376 0-18.788-8.412-18.788-18.788s8.412-18.788 18.788-18.788h157.79c10.376 0 18.79 8.412 18.79 18.788s-8.414 18.788-18.79 18.788zM590.896 296.514h-157.79c-10.376 0-18.788-8.412-18.788-18.79s8.412-18.788 18.788-18.788h157.79c10.376 0 18.79 8.412 18.79 18.788s-8.414 18.79-18.79 18.79zM590.896 221.358h-157.79c-10.376 0-18.788-8.412-18.788-18.788v-150.312c0-10.376 8.412-18.788 18.788-18.788h157.79c10.376 0 18.79 8.412 18.79 18.788v150.312c-0.002 10.376-8.414 18.788-18.79 18.788zM572.106 71.046h-120.212v112.734h120.212v-112.734zM820.104 597.138h-157.792c-10.376 0-18.788-8.412-18.788-18.788v-150.312c0-10.376 8.412-18.79 18.788-18.79h157.792c10.376 0 18.788 8.412 18.788 18.79v150.312c0.002 10.374-8.412 18.788-18.788 18.788zM801.316 446.826h-120.216v112.734h120.214v-112.734zM820.104 371.67h-157.792c-10.376 0-18.788-8.412-18.788-18.788s8.412-18.788 18.788-18.788h157.792c10.376 0 18.788 8.412 18.788 18.788s-8.412 18.788-18.788 18.788zM820.104 296.514h-157.792c-10.376 0-18.788-8.412-18.788-18.79s8.412-18.788 18.788-18.788h157.792c10.376 0 18.788 8.412 18.788 18.788s-8.412 18.79-18.788 18.79zM820.104 146.202h-157.792c-10.376 0-18.788-8.412-18.788-18.788s8.412-18.788 18.788-18.788h157.792c10.376 0 18.788 8.412 18.788 18.788s-8.412 18.788-18.788 18.788zM820.104 221.358h-157.792c-10.376 0-18.788-8.412-18.788-18.788s8.412-18.79 18.788-18.79h157.792c10.376 0 18.788 8.412 18.788 18.79s-8.412 18.788-18.788 18.788zM820.104 71.046h-157.792c-10.376 0-18.788-8.412-18.788-18.79s8.412-18.788 18.788-18.788h157.792c10.376 0 18.788 8.412 18.788 18.788s-8.412 18.79-18.788 18.79z" />
<glyph unicode="&#xe903;" glyph-name="info" d="M449.331 651.878c0 25.805 21.197 47.002 47.002 47.002h31.334c25.805 0 47.002-21.197 47.002-47.002v-31.334c0-25.805-21.197-47.002-47.002-47.002h-31.334c-25.805 0-47.002 21.197-47.002 47.002v31.334zM637.44 197.12h-250.88v62.771h62.771v188.109h-62.771v62.771h188.211v-250.88h62.771v-62.771zM512 949.76c-277.094 0-501.76-224.666-501.76-501.76s224.666-501.76 501.76-501.76 501.76 224.666 501.76 501.76-224.666 501.76-501.76 501.76zM512 40.346c-225.178 0-407.654 182.477-407.654 407.654s182.477 407.654 407.654 407.654c225.178 0 407.654-182.477 407.654-407.654s-182.477-407.654-407.654-407.654z" />
<glyph unicode="&#xe904;" glyph-name="meeting" d="M444.19 749.752h143.136c26.4 0 48.046-21.688 48.046-47.124v-104.428h-28.324v54.538c0 6.616-5.632 12.288-12.164 12.288v0c-7.558 0-13.21-5.652-13.21-12.288v-54.538h-129.946v54.538c0 6.616-5.652 12.288-13.168 12.288v0c-6.616 0-12.248-5.652-12.248-12.288v-54.538h-31.088v104.428c0.020 25.456 21.688 47.124 48.968 47.124v0zM515.748 890.040c33.934 0 61.216-27.32 61.216-61.216 0-33.874-27.278-61.174-61.216-61.174-33.854 0-61.194 27.3-61.194 61.174 0 33.894 27.342 61.216 61.194 61.216zM158.944 509.706h28.2c23.592 0 41.472-18.862 41.472-41.43v-84.704l-41.472-135.598h-28.2c-22.61 0-41.43 18.802-41.43 41.37v178.934c0 22.57 18.842 41.43 41.43 41.43v0zM173.036 644.26c32.050 0 57.466-26.296 57.466-57.384 0-32.010-25.396-57.426-57.466-57.426-32.010 0-57.426 25.416-57.426 57.426 0 31.088 25.416 57.384 57.426 57.384zM835.87 509.706h29.164c22.61 0 41.39-18.862 41.39-41.43v-178.934c0-22.568-18.802-41.37-41.39-41.37h-21.648l-48.968 159.11v61.194c0.020 22.57 18.822 41.43 41.452 41.43v0zM850.884 644.26c31.088 0 57.528-26.296 57.528-57.384 0-32.010-26.44-57.426-57.528-57.426-31.928 0-57.364 25.416-57.364 57.426 0 31.088 25.436 57.384 57.364 57.384zM624.004 208.404c-9.36 0-17.88-7.558-17.88-16.916v-29.204h34.836v29.204c0 9.36-7.476 16.916-16.956 16.916zM410.358 208.404c-9.462 0-17.020-7.558-17.020-16.916v-29.204h34.878v29.204c0 9.36-8.478 16.916-17.858 16.916zM825.836 220.918l-88.288 300.134c-9.81 31.334-27.648 58-61.522 58h-317.358c-33.894 0-52.594-26.666-61.522-58l-89.17-300.134c-8.93-31.356 27.648-58 61.522-58h91.812v95.764c0 34.038 28.528 62.606 63.304 62.606h185.486c34.714 0 62.362-28.57 62.362-62.606v-95.764h91.832c33.874 0 70.472 26.644 61.542 58zM517.366 345.19c-44.606 0-80.26 36.844-80.26 82.002 0 45.076 35.656 81.962 80.26 81.962 43.664 0 79.36-36.884 79.36-81.962 0-45.158-35.676-82.002-79.36-82.002zM350.966 70c0-27.278 17.92-49.91 42.354-59.31v151.592h-42.354v-92.284zM640.962 11.634c23.552 10.322 38.606 32.912 38.606 58.368v92.284h-38.606v-150.652zM428.216 162.284h177.91v-156.324h-177.91v156.324z" />
</font></defs></svg>